EESchema Schematic File Version 4
EELAYER 30 0
EELAYER END
$Descr A4 11693 8268
encoding utf-8
Sheet 1 1
Title ""
Date ""
Rev ""
Comp ""
Comment1 ""
Comment2 ""
Comment3 ""
Comment4 ""
$EndDescr
$Comp
L Device:C C1
U 1 1 5ECEB6FA
P 3650 3700
F 0 "C1" V 3398 3700 50  0000 C CNN
F 1 "10n" V 3489 3700 50  0000 C CNN
F 2 "Capacitor_SMD:C_0603_1608Metric" H 3688 3550 50  0001 C CNN
F 3 "~" H 3650 3700 50  0001 C CNN
	1    3650 3700
	0    1    1    0   
$EndComp
$Comp
L Device:R R1
U 1 1 5ECEC38C
P 4050 3700
F 0 "R1" V 3843 3700 50  0000 C CNN
F 1 "10k" V 3934 3700 50  0000 C CNN
F 2 "Resistor_SMD:R_0603_1608Metric" V 3980 3700 50  0001 C CNN
F 3 "~" H 4050 3700 50  0001 C CNN
	1    4050 3700
	0    1    1    0   
$EndComp
$Comp
L Device:R R3
U 1 1 5ECED1D0
P 4300 3900
F 0 "R3" H 4230 3854 50  0000 R CNN
F 1 "1M" H 4230 3945 50  0000 R CNN
F 2 "Resistor_SMD:R_0603_1608Metric" V 4230 3900 50  0001 C CNN
F 3 "~" H 4300 3900 50  0001 C CNN
	1    4300 3900
	-1   0    0    1   
$EndComp
$Comp
L Device:R R2
U 1 1 5ECEDE99
P 4050 4100
F 0 "R2" V 4257 4100 50  0000 C CNN
F 1 "20k" V 4166 4100 50  0000 C CNN
F 2 "Resistor_SMD:R_0603_1608Metric" V 3980 4100 50  0001 C CNN
F 3 "~" H 4050 4100 50  0001 C CNN
	1    4050 4100
	0    -1   -1   0   
$EndComp
$Comp
L Device:R R4
U 1 1 5ECF08B4
P 4750 4100
F 0 "R4" V 4957 4100 50  0000 C CNN
F 1 "20k" V 4866 4100 50  0000 C CNN
F 2 "Resistor_SMD:R_0603_1608Metric" V 4680 4100 50  0001 C CNN
F 3 "~" H 4750 4100 50  0001 C CNN
	1    4750 4100
	0    -1   -1   0   
$EndComp
Wire Wire Line
	3800 3700 3900 3700
Wire Wire Line
	4200 3700 4300 3700
Wire Wire Line
	4300 3700 4300 3750
Wire Wire Line
	4300 4050 4300 4100
Wire Wire Line
	4300 4100 4200 4100
Wire Wire Line
	4300 4100 4600 4100
Connection ~ 4300 4100
Wire Wire Line
	3900 4100 3850 4100
Wire Wire Line
	3850 4100 3850 4500
Wire Wire Line
	3850 4500 3900 4500
Wire Wire Line
	4200 4500 4300 4500
Wire Wire Line
	4300 4500 4300 4100
Connection ~ 3850 4500
$Comp
L power:GND #PWR012
U 1 1 5ECF880B
P 6050 4050
F 0 "#PWR012" H 6050 3800 50  0001 C CNN
F 1 "GND" H 6055 3877 50  0000 C CNN
F 2 "" H 6050 4050 50  0001 C CNN
F 3 "" H 6050 4050 50  0001 C CNN
	1    6050 4050
	1    0    0    -1  
$EndComp
Wire Wire Line
	6050 4000 6050 4050
Wire Wire Line
	5000 4100 4900 4100
$Comp
L Device:R R6
U 1 1 5ECFCA86
P 6000 4600
F 0 "R6" V 6207 4600 50  0000 C CNN
F 1 "1M" V 6116 4600 50  0000 C CNN
F 2 "Resistor_SMD:R_0603_1608Metric" V 5930 4600 50  0001 C CNN
F 3 "~" H 6000 4600 50  0001 C CNN
	1    6000 4600
	0    -1   -1   0   
$EndComp
Wire Wire Line
	6850 4600 6150 4600
Wire Wire Line
	5850 4600 5800 4600
Wire Wire Line
	5800 4600 5800 3800
Wire Wire Line
	5800 3800 5850 3800
Connection ~ 4300 3700
$Comp
L Device:C C3
U 1 1 5ED06F90
P 5550 4600
F 0 "C3" V 5298 4600 50  0000 C CNN
F 1 "50n" V 5389 4600 50  0000 C CNN
F 2 "Capacitor_SMD:C_0603_1608Metric" H 5588 4450 50  0001 C CNN
F 3 "~" H 5550 4600 50  0001 C CNN
	1    5550 4600
	0    1    1    0   
$EndComp
$Comp
L Device:R R5
U 1 1 5ED07D1E
P 5150 4600
F 0 "R5" V 5357 4600 50  0000 C CNN
F 1 "47k" V 5266 4600 50  0000 C CNN
F 2 "Resistor_SMD:R_0603_1608Metric" V 5080 4600 50  0001 C CNN
F 3 "~" H 5150 4600 50  0001 C CNN
	1    5150 4600
	0    -1   -1   0   
$EndComp
$Comp
L Device:R_POT RV1
U 1 1 5ED08461
P 4750 4600
F 0 "RV1" H 4681 4646 50  0000 R CNN
F 1 "500k" H 4681 4555 50  0000 R CNN
F 2 "Connector_PinHeader_2.54mm:PinHeader_1x03_P2.54mm_Vertical" H 4750 4600 50  0001 C CNN
F 3 "~" H 4750 4600 50  0001 C CNN
	1    4750 4600
	1    0    0    -1  
$EndComp
NoConn ~ 4750 4450
Wire Wire Line
	5300 4600 5400 4600
Wire Wire Line
	4900 4600 5000 4600
Wire Wire Line
	5700 4600 5800 4600
Connection ~ 5800 4600
Wire Wire Line
	4300 3600 5850 3600
Wire Wire Line
	4300 3600 4300 3700
$Comp
L Device:R R7
U 1 1 5ED152DA
P 7500 3700
F 0 "R7" V 7707 3700 50  0000 C CNN
F 1 "10k" V 7616 3700 50  0000 C CNN
F 2 "Resistor_SMD:R_0603_1608Metric" V 7430 3700 50  0001 C CNN
F 3 "~" H 7500 3700 50  0001 C CNN
	1    7500 3700
	0    -1   -1   0   
$EndComp
Wire Wire Line
	7250 3700 7350 3700
$Comp
L Device:C C5
U 1 1 5ED18471
P 9200 3900
F 0 "C5" H 9085 3854 50  0000 R CNN
F 1 "1n" H 9085 3945 50  0000 R CNN
F 2 "Capacitor_SMD:C_0603_1608Metric" H 9238 3750 50  0001 C CNN
F 3 "~" H 9200 3900 50  0001 C CNN
	1    9200 3900
	-1   0    0    1   
$EndComp
$Comp
L Device:R_POT RV2
U 1 1 5ED1E684
P 9900 3950
F 0 "RV2" H 9831 3996 50  0000 R CNN
F 1 "100k" H 9831 3905 50  0000 R CNN
F 2 "Connector_PinHeader_2.54mm:PinHeader_1x03_P2.54mm_Vertical" H 9900 3950 50  0001 C CNN
F 3 "~" H 9900 3950 50  0001 C CNN
	1    9900 3950
	1    0    0    -1  
$EndComp
Wire Wire Line
	9900 3700 9900 3800
Wire Wire Line
	9200 3700 9900 3700
Wire Wire Line
	9900 4150 9900 4100
Wire Wire Line
	9200 4150 9900 4150
Wire Wire Line
	3850 4500 3850 4850
Wire Wire Line
	4750 4750 4750 4850
Wire Wire Line
	6050 3050 6050 3350
Wire Wire Line
	5000 3350 5000 4100
Connection ~ 6050 3350
Wire Wire Line
	6050 3350 6050 3400
$Comp
L power:GND #PWR03
U 1 1 5ED4FEA3
P 1850 3850
F 0 "#PWR03" H 1850 3600 50  0001 C CNN
F 1 "GND" H 1855 3677 50  0000 C CNN
F 2 "" H 1850 3850 50  0001 C CNN
F 3 "" H 1850 3850 50  0001 C CNN
	1    1850 3850
	1    0    0    -1  
$EndComp
Wire Wire Line
	1850 3800 1850 3850
$Comp
L power:GND #PWR09
U 1 1 5ED51683
P 3850 4850
F 0 "#PWR09" H 3850 4600 50  0001 C CNN
F 1 "GND" H 3855 4677 50  0000 C CNN
F 2 "" H 3850 4850 50  0001 C CNN
F 3 "" H 3850 4850 50  0001 C CNN
	1    3850 4850
	1    0    0    -1  
$EndComp
$Comp
L power:GND #PWR010
U 1 1 5ED52005
P 4750 4850
F 0 "#PWR010" H 4750 4600 50  0001 C CNN
F 1 "GND" H 4755 4677 50  0000 C CNN
F 2 "" H 4750 4850 50  0001 C CNN
F 3 "" H 4750 4850 50  0001 C CNN
	1    4750 4850
	1    0    0    -1  
$EndComp
$Comp
L power:GND #PWR013
U 1 1 5ED52528
P 8100 4200
F 0 "#PWR013" H 8100 3950 50  0001 C CNN
F 1 "GND" H 8105 4027 50  0000 C CNN
F 2 "" H 8100 4200 50  0001 C CNN
F 3 "" H 8100 4200 50  0001 C CNN
	1    8100 4200
	1    0    0    -1  
$EndComp
$Comp
L power:-BATT #PWR08
U 1 1 5ED53DE6
P 3350 3450
F 0 "#PWR08" H 3350 3300 50  0001 C CNN
F 1 "-BATT" H 3365 3623 50  0000 C CNN
F 2 "" H 3350 3450 50  0001 C CNN
F 3 "" H 3350 3450 50  0001 C CNN
	1    3350 3450
	1    0    0    -1  
$EndComp
$Comp
L power:+BATT #PWR06
U 1 1 5ED5480F
P 2400 1150
F 0 "#PWR06" H 2400 1000 50  0001 C CNN
F 1 "+BATT" H 2415 1323 50  0000 C CNN
F 2 "" H 2400 1150 50  0001 C CNN
F 3 "" H 2400 1150 50  0001 C CNN
	1    2400 1150
	1    0    0    -1  
$EndComp
$Comp
L Device:Battery BT1
U 1 1 5ED56E2C
P 2400 1400
F 0 "BT1" H 2508 1446 50  0000 L CNN
F 1 "9V Battery" H 2508 1355 50  0000 L CNN
F 2 "Connector_PinHeader_2.54mm:PinHeader_1x02_P2.54mm_Vertical" V 2400 1460 50  0001 C CNN
F 3 "~" V 2400 1460 50  0001 C CNN
	1    2400 1400
	1    0    0    -1  
$EndComp
$Comp
L power:-BATT #PWR07
U 1 1 5ED59AD5
P 2400 1650
F 0 "#PWR07" H 2400 1500 50  0001 C CNN
F 1 "-BATT" H 2415 1823 50  0000 C CNN
F 2 "" H 2400 1650 50  0001 C CNN
F 3 "" H 2400 1650 50  0001 C CNN
	1    2400 1650
	-1   0    0    1   
$EndComp
Wire Wire Line
	2400 1150 2400 1200
Wire Wire Line
	2400 1600 2400 1650
Wire Wire Line
	3350 3600 3350 3450
$Comp
L Connector:Barrel_Jack J1
U 1 1 5ED60779
P 950 1350
F 0 "J1" H 1007 1675 50  0000 C CNN
F 1 "9V DC In" H 1007 1584 50  0000 C CNN
F 2 "Connector_PinHeader_2.54mm:PinHeader_1x02_P2.54mm_Vertical" H 1000 1310 50  0001 C CNN
F 3 "~" H 1000 1310 50  0001 C CNN
	1    950  1350
	1    0    0    -1  
$EndComp
$Comp
L power:+9V #PWR01
U 1 1 5ED62082
P 1400 1150
F 0 "#PWR01" H 1400 1000 50  0001 C CNN
F 1 "+9V" H 1415 1323 50  0000 C CNN
F 2 "" H 1400 1150 50  0001 C CNN
F 3 "" H 1400 1150 50  0001 C CNN
	1    1400 1150
	1    0    0    -1  
$EndComp
$Comp
L power:GND #PWR02
U 1 1 5ED62890
P 1400 1550
F 0 "#PWR02" H 1400 1300 50  0001 C CNN
F 1 "GND" H 1405 1377 50  0000 C CNN
F 2 "" H 1400 1550 50  0001 C CNN
F 3 "" H 1400 1550 50  0001 C CNN
	1    1400 1550
	1    0    0    -1  
$EndComp
Wire Wire Line
	1250 1250 1400 1250
Wire Wire Line
	1400 1250 1400 1150
Wire Wire Line
	1250 1450 1300 1450
Wire Wire Line
	1400 1450 1400 1550
$Comp
L Device:D D1
U 1 1 5ED65CC5
P 1750 1250
F 0 "D1" H 1750 1466 50  0000 C CNN
F 1 "1N4148" H 1750 1375 50  0000 C CNN
F 2 "Diode_SMD:D_0603_1608Metric" H 1750 1250 50  0001 C CNN
F 3 "~" H 1750 1250 50  0001 C CNN
	1    1750 1250
	1    0    0    -1  
$EndComp
$Comp
L power:+BATT #PWR05
U 1 1 5ED6673B
P 2000 1150
F 0 "#PWR05" H 2000 1000 50  0001 C CNN
F 1 "+BATT" H 2015 1323 50  0000 C CNN
F 2 "" H 2000 1150 50  0001 C CNN
F 3 "" H 2000 1150 50  0001 C CNN
	1    2000 1150
	1    0    0    -1  
$EndComp
Wire Wire Line
	2000 1150 2000 1250
Wire Wire Line
	2000 1250 1900 1250
Wire Wire Line
	1600 1250 1500 1250
Connection ~ 1400 1250
$Comp
L power:+9V #PWR011
U 1 1 5ED8CE61
P 6050 3050
F 0 "#PWR011" H 6050 2900 50  0001 C CNN
F 1 "+9V" H 6065 3223 50  0000 C CNN
F 2 "" H 6050 3050 50  0001 C CNN
F 3 "" H 6050 3050 50  0001 C CNN
	1    6050 3050
	1    0    0    -1  
$EndComp
$Comp
L power:GND #PWR04
U 1 1 5ED910E9
P 1950 4950
F 0 "#PWR04" H 1950 4700 50  0001 C CNN
F 1 "GND" H 1955 4777 50  0000 C CNN
F 2 "" H 1950 4950 50  0001 C CNN
F 3 "" H 1950 4950 50  0001 C CNN
	1    1950 4950
	1    0    0    -1  
$EndComp
Wire Wire Line
	1750 4750 1950 4750
Wire Wire Line
	1950 4750 1950 4950
$Comp
L Switch:SW_SPDT SW1
U 1 1 5ED94B91
P 2800 4350
F 0 "SW1" H 2800 4635 50  0000 C CNN
F 1 "Bypass Switch" H 2800 4544 50  0000 C CNN
F 2 "Connector_PinHeader_2.54mm:PinHeader_1x03_P2.54mm_Vertical" H 2800 4350 50  0001 C CNN
F 3 "~" H 2800 4350 50  0001 C CNN
	1    2800 4350
	1    0    0    -1  
$EndComp
Wire Wire Line
	2600 4350 2500 4350
Wire Wire Line
	2500 4350 2500 4850
Wire Wire Line
	2500 4850 1750 4850
Wire Wire Line
	1850 3700 3350 3700
Wire Wire Line
	1850 3600 2250 3600
Wire Wire Line
	3000 4250 3350 4250
Wire Wire Line
	3350 4250 3350 3700
Connection ~ 3350 3700
Wire Wire Line
	3350 3700 3500 3700
Wire Wire Line
	3000 4450 3350 4450
Wire Wire Line
	3350 4450 3350 5250
Wire Wire Line
	10150 5250 10150 3950
Wire Wire Line
	10150 3950 10050 3950
Wire Wire Line
	9200 3700 9200 3750
Wire Wire Line
	9200 4050 9200 4150
$Comp
L Simulation_SPICE:DIODE D3
U 1 1 5ED425EF
P 8650 3900
F 0 "D3" V 8696 3820 50  0000 R CNN
F 1 "1N4148" V 8605 3820 50  0000 R CNN
F 2 "Diode_SMD:D_0603_1608Metric" H 8650 3900 50  0001 C CNN
F 3 "~" H 8650 3900 50  0001 C CNN
F 4 "Y" H 8650 3900 50  0001 L CNN "Spice_Netlist_Enabled"
F 5 "V" H 8650 3900 50  0001 L CNN "Spice_Primitive"
	1    8650 3900
	0    -1   -1   0   
$EndComp
$Comp
L Simulation_SPICE:DIODE D2
U 1 1 5ED415D5
P 8100 3900
F 0 "D2" V 8054 3980 50  0000 L CNN
F 1 "1N4148" V 8145 3980 50  0000 L CNN
F 2 "Diode_SMD:D_0603_1608Metric" H 8100 3900 50  0001 C CNN
F 3 "~" H 8100 3900 50  0001 C CNN
F 4 "Y" H 8100 3900 50  0001 L CNN "Spice_Netlist_Enabled"
F 5 "V" H 8100 3900 50  0001 L CNN "Spice_Primitive"
	1    8100 3900
	0    1    1    0   
$EndComp
Wire Wire Line
	7650 3700 8100 3700
Connection ~ 9200 3700
Wire Wire Line
	8650 3700 8650 3750
Connection ~ 8650 3700
Wire Wire Line
	8650 3700 9200 3700
Wire Wire Line
	8650 4050 8650 4150
Wire Wire Line
	8650 4150 8100 4150
Wire Wire Line
	8100 4150 8100 4050
Wire Wire Line
	8100 3750 8100 3700
Connection ~ 8100 3700
Wire Wire Line
	8100 3700 8650 3700
Wire Wire Line
	8650 4150 9200 4150
Connection ~ 8650 4150
Connection ~ 9200 4150
Wire Wire Line
	8100 4150 8100 4200
Connection ~ 8100 4150
Wire Wire Line
	3350 5250 10150 5250
$Comp
L Device:CP C4
U 1 1 5EDBD057
P 7100 3700
F 0 "C4" V 7355 3700 50  0000 C CNN
F 1 "10u" V 7264 3700 50  0000 C CNN
F 2 "Capacitor_SMD:CP_Elec_6.3x3.9" H 7138 3550 50  0001 C CNN
F 3 "~" H 7100 3700 50  0001 C CNN
	1    7100 3700
	0    -1   -1   0   
$EndComp
$Comp
L Device:CP C2
U 1 1 5EDBDB91
P 4050 4500
F 0 "C2" V 3795 4500 50  0000 C CNN
F 1 "10u" V 3886 4500 50  0000 C CNN
F 2 "Capacitor_SMD:CP_Elec_6.3x3.9" H 4088 4350 50  0001 C CNN
F 3 "~" H 4050 4500 50  0001 C CNN
	1    4050 4500
	0    1    1    0   
$EndComp
$Comp
L Amplifier_Operational:OP07 U1
U 1 1 5EDC4A42
P 6150 3700
F 0 "U1" H 6494 3746 50  0000 L CNN
F 1 "AD8531" H 6494 3655 50  0000 L CNN
F 2 "Package_SO:SOIC-8_3.9x4.9mm_P1.27mm" H 6200 3750 50  0001 C CNN
F 3 "https://www.analog.com/media/en/technical-documentation/data-sheets/OP07.pdf" H 6200 3850 50  0001 C CNN
	1    6150 3700
	1    0    0    -1  
$EndComp
$Comp
L power:PWR_FLAG #FLG0101
U 1 1 5EDCAF7B
P 1500 1250
F 0 "#FLG0101" H 1500 1325 50  0001 C CNN
F 1 "PWR_FLAG" H 1500 1423 50  0001 C CNN
F 2 "" H 1500 1250 50  0001 C CNN
F 3 "~" H 1500 1250 50  0001 C CNN
	1    1500 1250
	-1   0    0    1   
$EndComp
Connection ~ 1500 1250
Wire Wire Line
	1500 1250 1400 1250
$Comp
L power:PWR_FLAG #FLG0102
U 1 1 5EDD0DB9
P 1300 1450
F 0 "#FLG0102" H 1300 1525 50  0001 C CNN
F 1 "PWR_FLAG" H 1300 1623 50  0001 C CNN
F 2 "" H 1300 1450 50  0001 C CNN
F 3 "~" H 1300 1450 50  0001 C CNN
	1    1300 1450
	-1   0    0    1   
$EndComp
Connection ~ 1300 1450
Wire Wire Line
	1300 1450 1400 1450
$Comp
L power:PWR_FLAG #FLG0103
U 1 1 5EDD1550
P 2400 1200
F 0 "#FLG0103" H 2400 1275 50  0001 C CNN
F 1 "PWR_FLAG" V 2400 1328 50  0000 L CNN
F 2 "" H 2400 1200 50  0001 C CNN
F 3 "~" H 2400 1200 50  0001 C CNN
	1    2400 1200
	0    1    1    0   
$EndComp
Connection ~ 2400 1200
$Comp
L power:PWR_FLAG #FLG0104
U 1 1 5EDD2561
P 2250 3600
F 0 "#FLG0104" H 2250 3675 50  0001 C CNN
F 1 "PWR_FLAG" H 2250 3773 50  0000 C CNN
F 2 "" H 2250 3600 50  0001 C CNN
F 3 "~" H 2250 3600 50  0001 C CNN
	1    2250 3600
	1    0    0    -1  
$EndComp
Connection ~ 2250 3600
Wire Wire Line
	2250 3600 3350 3600
NoConn ~ 6150 4000
Wire Wire Line
	5000 3350 6050 3350
NoConn ~ 6250 4000
$Comp
L Connector:Conn_01x03_Female J3
U 1 1 5EDEF71D
P 1650 3700
F 0 "J3" H 1542 3375 50  0000 C CNN
F 1 "Audio IN" H 1542 3466 50  0000 C CNN
F 2 "Connector_PinHeader_2.54mm:PinHeader_1x03_P2.54mm_Vertical" H 1650 3700 50  0001 C CNN
F 3 "~" H 1650 3700 50  0001 C CNN
	1    1650 3700
	-1   0    0    1   
$EndComp
$Comp
L Connector:Conn_01x02_Female J2
U 1 1 5EDF3B1C
P 1550 4850
F 0 "J2" H 1442 4525 50  0000 C CNN
F 1 "Audio OUT" H 1442 4616 50  0000 C CNN
F 2 "Connector_PinHeader_2.54mm:PinHeader_1x02_P2.54mm_Vertical" H 1550 4850 50  0001 C CNN
F 3 "~" H 1550 4850 50  0001 C CNN
	1    1550 4850
	-1   0    0    1   
$EndComp
Wire Wire Line
	6850 3700 6950 3700
Wire Wire Line
	6450 3700 6850 3700
Connection ~ 6850 3700
Wire Wire Line
	6850 3700 6850 4600
$EndSCHEMATC
